<?xml version="1.0" encoding="UTF-8"?>
<svg width="153px" height="152px" viewBox="0 0 153 152" version="1.1" xmlns="http://www.w3.org/2000/svg" xmlns:xlink="http://www.w3.org/1999/xlink">
    <!-- Generator: Sketch 50.2 (55047) - http://www.bohemiancoding.com/sketch -->
    <title>Group</title>
    <desc>Created with Sketch.</desc>
    <defs></defs>
    <g id="Page-1" stroke="none" stroke-width="1" fill="none" fill-rule="evenodd">
        <g id="Group" fill-rule="nonzero">
            <polygon id="Shape" fill="#B3B3B3" points="99.6 90.7 91.5 98.8 80.6 88 88.8 79.9"></polygon>
            <polygon id="Shape" fill="#999999" points="95.8 94.5 91.5 98.8 80.6 88 85 83.7"></polygon>
            <path d="M51.1,96.5 C38.6,96.5 26.9,91.7 18.1,82.9 C9.3,74.1 4.4,62.4 4.4,50 C4.4,37.6 9.3,25.9 18.1,17.1 C26.9,8.3 38.7,3.5 51.1,3.5 C63.5,3.5 75.3,8.3 84.1,17.1 C92.9,25.9 97.8,37.6 97.8,50 C97.8,62.4 92.9,74.1 84.1,82.9 C75.3,91.7 63.6,96.5 51.1,96.5" id="Shape" fill="#333333"></path>
            <path d="M51.1,6.9 C62.7,6.9 73.5,11.4 81.7,19.5 C89.9,27.6 94.4,38.5 94.4,50 C94.4,61.5 89.9,72.3 81.7,80.5 C73.5,88.6 62.7,93.1 51.1,93.1 C39.5,93.1 28.7,88.6 20.5,80.5 C12.3,72.4 7.8,61.5 7.8,50 C7.8,38.5 12.3,27.7 20.5,19.5 C28.7,11.4 39.6,6.9 51.1,6.9 Z M51.1,0 C38.3,0 25.4,4.9 15.6,14.6 C-4,34.1 -4,65.7 15.6,85.3 C25.4,95.1 38.2,99.9 51.1,99.9 C64,99.9 76.8,95 86.6,85.3 C106.2,65.8 106.2,34.2 86.6,14.6 C76.8,4.9 64,7.10542736e-15 51.1,0 Z" id="Shape" fill="#999999"></path>
            <path d="M150.2,149.2 C146.5,152.9 140.4,152.9 136.7,149.2 L88.8,101.5 C87,99.7 87,96.8 88.8,95 L95.8,88 C97.6,86.2 100.5,86.2 102.3,88 L150.2,135.7 C153.9,139.5 153.9,145.5 150.2,149.2" id="Shape" fill="#4D4D4D"></path>
            <path d="M88.5,95.3 C87,97.1 87.1,99.8 88.8,101.5 L136.7,149.2 C139,151.5 142.3,152.4 145.3,151.8 L88.5,95.3" id="Shape" fill="#333333"></path>
            <path d="M51.1,3.8 C63.5,3.8 75.1,8.6 83.9,17.3 C92.6,26 97.5,37.6 97.5,49.9 C97.5,62.2 92.7,73.8 83.9,82.5 C75.2,91.2 63.5,96 51.1,96 C38.7,96 27.1,91.2 18.3,82.5 C9.6,73.8 4.7,62.2 4.7,49.9 C4.7,37.6 9.5,26 18.3,17.3 C27.1,8.6 38.8,3.8 51.1,3.8 Z M51.1,0 C38.3,0 25.4,4.9 15.6,14.6 C-4,34.1 -4,65.7 15.6,85.3 C25.4,95.1 38.2,99.9 51.1,99.9 C64,99.9 76.8,95 86.6,85.3 C106.2,65.8 106.2,34.2 86.6,14.6 C76.8,4.9 64,3.55271368e-15 51.1,0 Z" id="Shape" fill="#CCCCCC"></path>
            <path d="M51.1,96.1 C38.7,96.1 27.1,91.3 18.4,82.6 C9.7,73.9 4.8,62.3 4.8,50 C4.8,37.7 9.6,26.1 18.4,17.4 L15.7,14.7 C-3.9,34.2 -3.9,65.8 15.7,85.4 C16,85.7 16.3,86 16.6,86.3 C26,95.2 37.9,99.7 49.9,100 C50.3,100 50.7,100 51.1,100 C57.5,100 63.9,98.8 70,96.3 C71.1,95.8 72.3,95.3 73.4,94.8 C74.1,94.4 74.9,94.1 75.6,93.7 C79.6,91.5 83.3,88.7 86.7,85.4 L84,82.7 C75.1,91.3 63.5,96.1 51.1,96.1" id="Shape" fill="#B3B3B3"></path>
            <path d="M42.1,77.6 C40.6,77.6 39.4,76.4 39.4,74.9 C39.4,73.4 40.6,72.2 42.1,72.2 L49.8,72.2 C51.3,72.2 52.5,73.4 52.5,74.9 C52.5,76.4 51.3,77.6 49.8,77.6 L42.1,77.6" id="Shape" fill="#E24329"></path>
            <path d="M16.9,42.9 C18.2,42.9 19.2,43.9 19.2,45.2 C19.2,46.5 18.2,47.5 16.9,47.5 L8.8,47.5 C8.9,46 9.1,44.4 9.3,42.9 L16.9,42.9 Z" id="Shape" fill="#6B5FC4"></path>
            <path d="M65.1,42.9 C66.4,42.9 67.4,43.9 67.4,45.2 C67.4,46.5 66.4,47.5 65.1,47.5 L26.8,47.5 C25.5,47.5 24.5,46.5 24.5,45.2 C24.5,43.9 25.5,42.9 26.8,42.9 L65.1,42.9 Z" id="Shape" fill="#F9B767"></path>
            <path d="M93,42.9 C93.3,44.4 93.4,46 93.5,47.5 L75,47.5 C73.7,47.5 72.7,46.5 72.7,45.2 C72.7,43.9 73.7,42.9 75,42.9 L93,42.9 Z" id="Shape" fill="#40CC7F"></path>
            <path d="M9,57.8 C8.7,56 8.5,54.2 8.4,52.4 L94,52.4 C93.9,54.2 93.7,56 93.4,57.8 L9,57.8" id="Shape" fill="#22B573"></path>
            <path d="M12.1,67.7 C11.3,66 10.6,64.2 10.1,62.3 L60.5,62.3 C62,62.3 63.2,63.5 63.2,65 C63.2,66.5 62,67.7 60.5,67.7 L12.1,67.7" id="Shape" fill="#22B573"></path>
            <path d="M70.4,67.7 C68.9,67.7 67.7,66.5 67.7,65 C67.7,63.5 68.9,62.3 70.4,62.3 L92.2,62.3 C91.7,64.1 91,65.9 90.2,67.7 L70.4,67.7" id="Shape" fill="#22B573"></path>
            <path d="M18.4,77.6 C17.2,76.1 16,74.6 15,73 C15.5,72.5 16.2,72.2 16.9,72.2 L32.2,72.2 C33.7,72.2 34.9,73.4 34.9,74.9 C34.9,76.4 33.7,77.6 32.2,77.6 L18.4,77.6" id="Shape" fill="#6B4FBB"></path>
        </g>
    </g>
</svg>